vcd-translate/memory_tb.vcd
$date
	Wed Apr 13 10:11:07 2022
$end
$version
	Icarus Verilog
$end
$timescale
	1s
$end
$scope module memory_tb $end
$var wire 126 ! _dummy [125:0] $end
$var wire 32 " q11 [31:0] $end
$var wire 32 # q10 [31:0] $end
$var wire 32 $ q01 [31:0] $end
$var wire 32 % q00 [31:0] $end
$var reg 1 & __failed $end
$var reg 1 ' clk $end
$var reg 1 ( rst $end
$var reg 1 ) write_enable $end
$var reg 32 * write_val [31:0] $end
$var reg 5 + x [4:0] $end
$var reg 5 , y [4:0] $end
$var integer 32 - test_case [31:0] $end
$scope module uut $end
$var wire 128 . __output [127:0] $end
$var wire 1 ' _i_mem_clk $end
$var wire 118 / _i_mem_model_out [117:0] $end
$var wire 1 ) _i_mem_write_enable $end
$var wire 32 0 _i_mem_write_val [31:0] $end
$var wire 5 1 _i_mem_x [4:0] $end
$var wire 5 2 _i_mem_y [4:0] $end
$var wire 1 3 mem_clk_n226 $end
$var wire 118 4 mem_model_out_n231 [117:0] $end
$var wire 1 5 mem_write_enable_n229 $end
$var wire 32 6 mem_write_val_n230 [31:0] $end
$var wire 5 7 mem_x_n227 [4:0] $end
$var wire 5 8 mem_y_n228 [4:0] $end
$var wire 67 9 mem_addrs_n232 [66:0] $end
$var wire 118 : mem___n233 [117:0] $end
$var wire 246 ; _e_823 [245:0] $end
$var wire 128 < _e_822 [127:0] $end
$var wire 185 = _e_821 [184:0] $end
$scope module mem_mem_addrs__e_821 $end
$var wire 185 > __output [184:0] $end
$var wire 5 ? _e_483 [4:0] $end
$var wire 5 @ _e_485 [4:0] $end
$var wire 5 A _e_486 [4:0] $end
$var wire 5 B _e_489 [4:0] $end
$var wire 5 C _e_491 [4:0] $end
$var wire 5 D _e_492 [4:0] $end
$var wire 5 E _e_507 [4:0] $end
$var wire 5 F _e_518 [4:0] $end
$var wire 1 3 _i_mem_clk $end
$var wire 118 G _i_mem_model_out [117:0] $end
$var wire 1 5 _i_mem_write_enable $end
$var wire 32 H _i_mem_write_val [31:0] $end
$var wire 5 I _i_mem_x [4:0] $end
$var wire 5 J _i_mem_y [4:0] $end
$var wire 1 K mem_clk_n170 $end
$var wire 118 L mem_model_out_n173 [117:0] $end
$var wire 1 M mem_write_enable_n174 $end
$var wire 32 N mem_write_val_n175 [31:0] $end
$var wire 5 O mem_x_n171 [4:0] $end
$var wire 5 P mem_y_n172 [4:0] $end
$var wire 1 Q mem_y_odd_n177 $end
$var wire 4 R mem_y_o_n179 [3:0] $end
$var wire 4 S mem_y_e_n181 [3:0] $end
$var wire 1 T mem_x_odd_n176 $end
$var wire 4 U mem_x_o_n178 [3:0] $end
$var wire 4 V mem_x_e_n180 [3:0] $end
$var wire 67 W mem_result_n186 [66:0] $end
$var wire 8 X mem_m3_n185 [7:0] $end
$var wire 8 Y mem_m2_n184 [7:0] $end
$var wire 8 Z mem_m1_n183 [7:0] $end
$var wire 8 [ mem_m0_n182 [7:0] $end
$var wire 185 \ _e_548 [184:0] $end
$var wire 6 ] _e_516 [5:0] $end
$var wire 5 ^ _e_515 [4:0] $end
$var wire 5 _ _e_512 [4:0] $end
$var wire 6 ` _e_505 [5:0] $end
$var wire 5 a _e_504 [4:0] $end
$var wire 5 b _e_501 [4:0] $end
$var reg 8 c mem_m0_s0_n251 [7:0] $end
$var reg 8 d mem_m1_s0_n252 [7:0] $end
$var reg 8 e mem_m2_s0_n253 [7:0] $end
$var reg 8 f mem_m3_s0_n254 [7:0] $end
$var reg 118 g mem_model_out_s0_n242 [117:0] $end
$var reg 67 h mem_result_s0_n255 [66:0] $end
$var reg 1 i mem_write_enable_s0_n243 $end
$var reg 32 j mem_write_val_s0_n244 [31:0] $end
$var reg 4 k mem_x_e_s0_n249 [3:0] $end
$var reg 4 l mem_x_o_s0_n247 [3:0] $end
$var reg 1 m mem_x_odd_s0_n245 $end
$var reg 5 n mem_x_s0_n240 [4:0] $end
$var reg 4 o mem_y_e_s0_n250 [3:0] $end
$var reg 4 p mem_y_o_s0_n248 [3:0] $end
$var reg 1 q mem_y_odd_s0_n246 $end
$var reg 5 r mem_y_s0_n241 [4:0] $end
$scope module mem_trim_bit_mem_x_e_n180 $end
$var wire 4 s __output [3:0] $end
$var wire 5 t _e_480 [4:0] $end
$var wire 5 u _i_mem_x [4:0] $end
$var wire 5 v mem_x_n169 [4:0] $end
$var wire 5 w _e_478 [4:0] $end
$var wire 4 x _e_477 [3:0] $end
$upscope $end
$scope module mem_trim_bit_mem_x_o_n178 $end
$var wire 4 y __output [3:0] $end
$var wire 5 z _e_480 [4:0] $end
$var wire 5 { _i_mem_x [4:0] $end
$var wire 5 | mem_x_n169 [4:0] $end
$var wire 5 } _e_478 [4:0] $end
$var wire 4 ~ _e_477 [3:0] $end
$upscope $end
$scope module mem_trim_bit_mem_y_e_n181 $end
$var wire 4 !" __output [3:0] $end
$var wire 5 "" _e_480 [4:0] $end
$var wire 5 #" _i_mem_x [4:0] $end
$var wire 5 $" mem_x_n169 [4:0] $end
$var wire 5 %" _e_478 [4:0] $end
$var wire 4 &" _e_477 [3:0] $end
$upscope $end
$scope module mem_trim_bit_mem_y_o_n179 $end
$var wire 4 '" __output [3:0] $end
$var wire 5 (" _e_480 [4:0] $end
$var wire 5 )" _i_mem_x [4:0] $end
$var wire 5 *" mem_x_n169 [4:0] $end
$var wire 5 +" _e_478 [4:0] $end
$var wire 4 ," _e_477 [3:0] $end
$upscope $end
$upscope $end
$scope module mem_memory__e_823 $end
$var wire 246 -" __output [245:0] $end
$var wire 1 ." _e_553 $end
$var wire 1 /" _e_556 $end
$var wire 1 0" _e_563 $end
$var wire 1 1" _e_566 $end
$var wire 1 2" _e_572 $end
$var wire 1 3" _e_575 $end
$var wire 1 4" _e_581 $end
$var wire 1 5" _e_584 $end
$var wire 32 6" _e_635 [31:0] $end
$var wire 32 7" _e_641 [31:0] $end
$var wire 32 8" _e_647 [31:0] $end
$var wire 32 9" _e_653 [31:0] $end
$var wire 1 :" _e_850 $end
$var wire 1 ;" _e_854 $end
$var wire 1 <" _e_858 $end
$var wire 1 =" _e_862 $end
$var wire 67 >" _i_mem_addrs [66:0] $end
$var wire 1 3 _i_mem_clk $end
$var wire 118 ?" _i_mem_model_out [117:0] $end
$var wire 67 @" mem_addrs_n188 [66:0] $end
$var wire 1 A" mem_clk_n187 $end
$var wire 118 B" mem_model_out_n189 [117:0] $end
$var wire 32 C" mem_write_val_n191 [31:0] $end
$var wire 4 D" mem_we_n190 [3:0] $end
$var wire 32 E" mem_q11_n205 [31:0] $end
$var wire 32 F" mem_q10_n203 [31:0] $end
$var wire 32 G" mem_q01_n204 [31:0] $end
$var wire 32 H" mem_q00_n202 [31:0] $end
$var wire 1 I" _e_857 $end
$var wire 1 J" _e_852 $end
$var wire 1 K" _e_849 $end
$var wire 1 L" _e_848 $end
$var wire 128 M" _e_707 [127:0] $end
$var wire 246 N" _e_706 [245:0] $end
$var wire 128 O" _e_696 [127:0] $end
$var wire 1 P" _e_694 $end
$var wire 1 Q" _e_693 $end
$var wire 128 R" _e_688 [127:0] $end
$var wire 1 S" _e_686 $end
$var wire 1 T" _e_685 $end
$var wire 128 U" _e_680 [127:0] $end
$var wire 1 V" _e_678 $end
$var wire 1 W" _e_677 $end
$var wire 128 X" _e_672 [127:0] $end
$var wire 1 Y" _e_670 $end
$var wire 1 Z" _e_669 $end
$var wire 1 [" _e_667 $end
$var wire 1 \" _e_665 $end
$var wire 2 ]" _e_664 [1:0] $end
$var wire 8 ^" _e_655 [7:0] $end
$var wire 8 _" _e_649 [7:0] $end
$var wire 8 `" _e_643 [7:0] $end
$var wire 8 a" _e_637 [7:0] $end
$var wire 8 b" _e_629 [7:0] $end
$var wire 1 c" _e_627 $end
$var wire 41 d" _e_626 [40:0] $end
$var wire 41 e" _e_625 [40:0] $end
$var wire 8 f" _e_619 [7:0] $end
$var wire 1 g" _e_617 $end
$var wire 41 h" _e_616 [40:0] $end
$var wire 41 i" _e_615 [40:0] $end
$var wire 8 j" _e_609 [7:0] $end
$var wire 1 k" _e_607 $end
$var wire 41 l" _e_606 [40:0] $end
$var wire 41 m" _e_605 [40:0] $end
$var wire 8 n" _e_599 [7:0] $end
$var wire 1 o" _e_597 $end
$var wire 41 p" _e_596 [40:0] $end
$var wire 41 q" _e_595 [40:0] $end
$var wire 1 r" _e_587 $end
$var wire 1 s" _e_585 $end
$var wire 1 t" _e_582 $end
$var wire 1 u" _e_579 $end
$var wire 1 v" _e_577 $end
$var wire 1 w" _e_576 $end
$var wire 1 x" _e_573 $end
$var wire 1 y" _e_570 $end
$var wire 1 z" _e_569 $end
$var wire 1 {" _e_567 $end
$var wire 1 |" _e_564 $end
$var wire 1 }" _e_561 $end
$var wire 1 ~" _e_560 $end
$var wire 1 !# _e_558 $end
$var wire 1 "# _e_557 $end
$var wire 1 ## _e_554 $end
$var reg 128 $# _e_705 [127:0] $end
$var reg 67 %# mem_addrs_s1_n200 [66:0] $end
$var reg 32 &# mem_m0_n196 [31:0] $end
$var reg 32 '# mem_m1_n197 [31:0] $end
$var reg 32 (# mem_m2_n198 [31:0] $end
$var reg 32 )# mem_m3_n199 [31:0] $end
$var reg 118 *# mem_model_out_s1_n201 [117:0] $end
$upscope $end
$upscope $end
$upscope $end
$enddefinitions $end
#0
$dumpvars
bx *#
bx )#
bx (#
bx '#
bx &#
bx %#
bx $#
x##
x"#
x!#
x~"
x}"
x|"
x{"
xz"
xy"
xx"
xw"
xv"
xu"
xt"
xs"
xr"
bx q"
bx p"
xo"
bx n"
bx m"
bx l"
xk"
bx j"
bx i"
bx h"
xg"
bx f"
bx e"
bx d"
xc"
bx b"
bx a"
bx `"
bx _"
bx ^"
bx ]"
x\"
x["
xZ"
xY"
bx X"
xW"
xV"
bx U"
xT"
xS"
bx R"
xQ"
xP"
bx O"
bx N"
bx M"
xL"
xK"
xJ"
xI"
bx H"
bx G"
bx F"
bx E"
bx D"
bx C"
bz B"
0A"
bx @"
bz ?"
bx >"
x="
x<"
x;"
x:"
bx 9"
bx 8"
bx 7"
bx 6"
x5"
x4"
x3"
x2"
x1"
x0"
x/"
x."
bx -"
b0 ,"
b0 +"
b0 *"
b0 )"
b1 ("
b0 '"
b0 &"
b0 %"
b0 $"
b0 #"
b1 ""
b0 !"
b0 ~
b0 }
b0 |
b0 {
b1 z
b0 y
b0 x
b0 w
b0 v
b0 u
b1 t
b0 s
bx r
xq
bx p
bx o
bx n
xm
bx l
bx k
bx j
xi
bx h
bx g
bx f
bx e
bx d
bx c
b0 b
b1 a
b1 `
b0 _
b1 ^
b1 ]
bx \
b0 [
b0 Z
b0 Y
b0 X
b100000000000000000000000000000101 W
b0 V
b0 U
0T
b0 S
b0 R
0Q
b0 P
b0 O
b101 N
1M
bz L
0K
b0 J
b0 I
b101 H
bz G
b1 F
b1 E
b1 D
b1 C
b0 B
b1 A
b1 @
b0 ?
bx >
bx =
bx <
bx ;
bx :
bx 9
b0 8
b0 7
b101 6
15
bz 4
03
b0 2
b0 1
b101 0
bz /
bx .
b1 -
b0 ,
b0 +
b101 *
1)
0(
0'
0&
bx %
bx $
bx #
bx "
bz !
$end
#1
1o"
0k"
0g"
0c"
1."
1/"
00"
01"
02"
03"
b1000 D"
04"
05"
1##
1"#
0!#
1~"
0}"
1|"
0{"
1z"
0y"
1x"
1w"
0v"
0u"
1t"
0s"
0r"
b101 C"
b10000000000000000000000000000000000000101 q"
b10000000000000000000000000000000000000101 p"
b0 n"
b101 m"
b101 l"
b0 j"
b101 i"
b101 h"
b0 f"
b101 e"
b101 d"
b0 b"
b0 a"
b0 `"
b0 _"
b0 ^"
bz :
b100000000000000000000000000000101 @"
b100000000000000000000000000000101 9
b100000000000000000000000000000101 >"
b0 n
b0 r
bz g
1i
b101 j
0m
0q
b0 l
b0 p
b0 k
b0 o
b0 c
b0 d
b0 e
b0 f
b100000000000000000000000000000101zzzzzzzzzzzzzzzzzzzzzzzzzzzzzzzzzzzzzzzzzzzzzzzzzzzzzzzzzzzzzzzzzzzzzzzzzzzzzzzzzzzzzzzzzzzzzzzzzzzzzzzzzzzzzzzzzzzzzz =
b100000000000000000000000000000101zzzzzzzzzzzzzzzzzzzzzzzzzzzzzzzzzzzzzzzzzzzzzzzzzzzzzzzzzzzzzzzzzzzzzzzzzzzzzzzzzzzzzzzzzzzzzzzzzzzzzzzzzzzzzzzzzzzzzz >
b100000000000000000000000000000101zzzzzzzzzzzzzzzzzzzzzzzzzzzzzzzzzzzzzzzzzzzzzzzzzzzzzzzzzzzzzzzzzzzzzzzzzzzzzzzzzzzzzzzzzzzzzzzzzzzzzzzzzzzzzzzzzzzzzz \
b100000000000000000000000000000101 h
bxzzzzzzzzzzzzzzzzzzzzzzzzzzzzzzzzzzzzzzzzzzzzzzzzzzzzzzzzzzzzzzzzzzzzzzzzzzzzzzzzzzzzzzzzzzzzzzzzzzzzzzzzzzzzzzzzzzzzzz ;
bxzzzzzzzzzzzzzzzzzzzzzzzzzzzzzzzzzzzzzzzzzzzzzzzzzzzzzzzzzzzzzzzzzzzzzzzzzzzzzzzzzzzzzzzzzzzzzzzzzzzzzzzzzzzzzzzzzzzzzz -"
bxzzzzzzzzzzzzzzzzzzzzzzzzzzzzzzzzzzzzzzzzzzzzzzzzzzzzzzzzzzzzzzzzzzzzzzzzzzzzzzzzzzzzzzzzzzzzzzzzzzzzzzzzzzzzzzzzzzzzzz N"
bz *#
1K
1A"
13
1'
#2
b10000 Y
b10000 [
b1 V
b1 s
b1 x
b1 w
1T
b1 ?
b10 a
b10 v
b10 b
b10 u
b10 -
b1000000000000000100000000000010100000000000000000000000000000110 W
b110 N
b110 6
b110 H
b110 *
b110 0
b10 `
b1 |
b1 O
b1 {
b1 7
b1 I
b1 +
b1 1
0K
0A"
03
0'
#3
0o"
1k"
0."
b100 D"
10"
0/"
11"
1:"
0;"
0<"
0="
0"#
1!#
1{"
0w"
1v"
1s"
b10000000000000000000000000000000000000110 m"
b10000000000000000000000000000000000000110 l"
b110 e"
b110 d"
b110 C"
b1000000000000000000000000000000000110 q"
b1000000000000000000000000000000000110 p"
b10000 n"
b1000000000000000000000000000000000110 i"
b1000000000000000000000000000000000110 h"
b10000 f"
b10000 a"
b10000 _"
1L"
0Z"
1J"
0W"
0T"
0Q"
1K"
0Y"
0V"
1I"
0S"
0P"
b1000000000000000100000000000010100000000000000000000000000000110 @"
b1000000000000000100000000000010100000000000000000000000000000110 9
b1000000000000000100000000000010100000000000000000000000000000110 >"
0\"
b0 ]"
0["
b1000000000000000100000000000010100000000000000000000000000000110zzzzzzzzzzzzzzzzzzzzzzzzzzzzzzzzzzzzzzzzzzzzzzzzzzzzzzzzzzzzzzzzzzzzzzzzzzzzzzzzzzzzzzzzzzzzzzzzzzzzzzzzzzzzzzzzzzzzzz =
b1000000000000000100000000000010100000000000000000000000000000110zzzzzzzzzzzzzzzzzzzzzzzzzzzzzzzzzzzzzzzzzzzzzzzzzzzzzzzzzzzzzzzzzzzzzzzzzzzzzzzzzzzzzzzzzzzzzzzzzzzzzzzzzzzzzzzzzzzzzz >
b1000000000000000100000000000010100000000000000000000000000000110zzzzzzzzzzzzzzzzzzzzzzzzzzzzzzzzzzzzzzzzzzzzzzzzzzzzzzzzzzzzzzzzzzzzzzzzzzzzzzzzzzzzzzzzzzzzzzzzzzzzzzzzzzzzzzzzzzzzzz \
b1000000000000000100000000000010100000000000000000000000000000110 h
b10000 e
b10000 c
b1 k
1m
b110 j
b1 n
b100000000000000000000000000000101 %#
bx 6"
1K
1A"
13
1'
#4
b1 Z
b1 S
b1 !"
b1 &"
b0 Y
b1 [
b0 V
b0 s
b0 x
b1 %"
b0 w
b0 v
b0 b
b0 u
1Q
b1 B
b10 ^
b10 $"
b10 _
b10 #"
0T
b0 ?
b1 a
b11 -
b100000001000000000000000001100000000000000000000000000000111 W
b111 N
b111 6
b111 H
b111 *
b111 0
b10 ]
b1 *"
b1 P
b1 )"
b1 8
b1 J
b1 ,
b1 2
b1 `
b0 |
b0 O
b0 {
b0 7
b0 I
b0 +
b0 1
0K
0A"
03
0'
#5
0k"
1g"
00"
b10 D"
12"
01"
13"
0:"
1<"
1"#
0!#
0~"
1}"
0{"
0z"
1y"
1w"
0v"
1u"
0s"
1r"
b111 e"
b111 d"
b111 C"
b100000000000000000000000000000111 q"
b100000000000000000000000000000111 p"
b1 n"
b100000000000000000000000000000111 m"
b100000000000000000000000000000111 l"
b1 j"
b10000000000000000000000000000000000000111 i"
b10000000000000000000000000000000000000111 h"
b0 f"
b1 a"
b1 `"
b0 _"
0L"
1Z"
0J"
1W"
1T"
1Q"
b100000001000000000000000001100000000000000000000000000000111 @"
b100000001000000000000000001100000000000000000000000000000111 9
b100000001000000000000000001100000000000000000000000000000111 >"
b10 ]"
1\"
b0 n
b1 r
b111 j
0m
1q
b0 k
b1 o
b1 c
b1 d
b0 e
b100000001000000000000000001100000000000000000000000000000111zzzzzzzzzzzzzzzzzzzzzzzzzzzzzzzzzzzzzzzzzzzzzzzzzzzzzzzzzzzzzzzzzzzzzzzzzzzzzzzzzzzzzzzzzzzzzzzzzzzzzzzzzzzzzzzzzzzzzz =
b100000001000000000000000001100000000000000000000000000000111zzzzzzzzzzzzzzzzzzzzzzzzzzzzzzzzzzzzzzzzzzzzzzzzzzzzzzzzzzzzzzzzzzzzzzzzzzzzzzzzzzzzzzzzzzzzzzzzzzzzzzzzzzzzzzzzzzzzzz >
b100000001000000000000000001100000000000000000000000000000111zzzzzzzzzzzzzzzzzzzzzzzzzzzzzzzzzzzzzzzzzzzzzzzzzzzzzzzzzzzzzzzzzzzzzzzzzzzzzzzzzzzzzzzzzzzzzzzzzzzzzzzzzzzzzzzzzzzzzz \
b100000001000000000000000001100000000000000000000000000000111 h
bx 7"
b1000000000000000100000000000010100000000000000000000000000000110 %#
1K
1A"
13
1'
#6
b10000 Y
b10001 [
b1 V
b1 s
b1 x
b1 w
1T
b1 ?
b10 a
b10 v
b10 b
b10 u
b100 -
b1000100000001000100000000000011100000000000000000000000000001000 W
b1000 N
b1000 6
b1000 H
b1000 *
b1000 0
b10 `
b1 |
b1 O
b1 {
b1 7
b1 I
b1 +
b1 1
0K
0A"
03
0'
#7
0g"
1c"
02"
b1 D"
14"
03"
15"
1;"
0<"
0"#
1!#
1{"
0w"
1v"
1s"
b100000000000000000000000000001000 m"
b100000000000000000000000000001000 l"
b10000000000000000000000000000000000001000 e"
b10000000000000000000000000000000000001000 d"
b1000 C"
b1000100000000000000000000000000001000 q"
b1000100000000000000000000000000001000 p"
b10001 n"
b1000000000000000000000000000000001000 i"
b1000000000000000000000000000000001000 h"
b10000 f"
b10001 a"
b10000 _"
1L"
0Z"
1J"
0W"
0T"
0Q"
0K"
1Y"
1V"
0I"
1S"
1P"
b1000100000001000100000000000011100000000000000000000000000001000 @"
b1000100000001000100000000000011100000000000000000000000000001000 9
b1000100000001000100000000000011100000000000000000000000000001000 >"
0\"
b1 ]"
1["
b1000100000001000100000000000011100000000000000000000000000001000zzzzzzzzzzzzzzzzzzzzzzzzzzzzzzzzzzzzzzzzzzzzzzzzzzzzzzzzzzzzzzzzzzzzzzzzzzzzzzzzzzzzzzzzzzzzzzzzzzzzzzzzzzzzzzzzzzzzzz =
b1000100000001000100000000000011100000000000000000000000000001000zzzzzzzzzzzzzzzzzzzzzzzzzzzzzzzzzzzzzzzzzzzzzzzzzzzzzzzzzzzzzzzzzzzzzzzzzzzzzzzzzzzzzzzzzzzzzzzzzzzzzzzzzzzzzzzzzzzzzz >
b1000100000001000100000000000011100000000000000000000000000001000zzzzzzzzzzzzzzzzzzzzzzzzzzzzzzzzzzzzzzzzzzzzzzzzzzzzzzzzzzzzzzzzzzzzzzzzzzzzzzzzzzzzzzzzzzzzzzzzzzzzzzzzzzzzzzzzzzzzzz \
b1000100000001000100000000000011100000000000000000000000000001000 h
b10000 e
b10001 c
b1 k
1m
b1000 j
b1 n
b100000001000000000000000001100000000000000000000000000000111 %#
bx 8"
1K
1A"
13
1'
#8
b0 Z
b0 S
b0 !"
b0 &"
b0 Y
b0 [
b0 V
b0 s
b0 x
b0 %"
b0 $"
b0 _
b0 #"
b0 w
b0 v
b0 b
b0 u
0Q
b0 B
b1 ^
0T
b0 ?
b1 a
b101 -
b0 N
b0 6
b0 H
b0 *
b0 0
b0 W
0M
05
0)
b1 ]
b0 *"
b0 P
b0 )"
b0 8
b0 J
b0 ,
b0 2
b1 `
b0 |
b0 O
b0 {
b0 7
b0 I
b0 +
b0 1
0K
0A"
03
0'
#9
0c"
1/"
b0 D"
04"
05"
0;"
1="
0##
1"#
0!#
1~"
0}"
0|"
0{"
1z"
0y"
0x"
1w"
0v"
0u"
0t"
0s"
0r"
b0 e"
b0 d"
b0 C"
b0 q"
b0 p"
b0 n"
b0 m"
b0 l"
b0 j"
b0 i"
b0 h"
b0 f"
b101 6"
b0 a"
b110 7"
b0 `"
b111 8"
b0 _"
0L"
1Z"
0J"
1W"
1T"
1Q"
b0 @"
b0 9
b0 >"
b11 ]"
1\"
b0 n
b0 r
0i
b0 j
0m
0q
b0 k
b0 o
b0 c
b0 d
b0 e
b0zzzzzzzzzzzzzzzzzzzzzzzzzzzzzzzzzzzzzzzzzzzzzzzzzzzzzzzzzzzzzzzzzzzzzzzzzzzzzzzzzzzzzzzzzzzzzzzzzzzzzzzzzzzzzzzzzzzzzz =
b0zzzzzzzzzzzzzzzzzzzzzzzzzzzzzzzzzzzzzzzzzzzzzzzzzzzzzzzzzzzzzzzzzzzzzzzzzzzzzzzzzzzzzzzzzzzzzzzzzzzzzzzzzzzzzzzzzzzzzz >
b0zzzzzzzzzzzzzzzzzzzzzzzzzzzzzzzzzzzzzzzzzzzzzzzzzzzzzzzzzzzzzzzzzzzzzzzzzzzzzzzzzzzzzzzzzzzzzzzzzzzzzzzzzzzzzzzzzzzzzz \
b0 h
b1000 9"
b1000100000001000100000000000011100000000000000000000000000001000 %#
1K
1A"
13
1'
#10
0K
0A"
03
0'
#11
b1000 "
b110 #
b111 $
b101 %
1:"
0="
b101000000000000000000000000000001110000000000000000000000000000011000000000000000000000000000001000 .
b101000000000000000000000000000001110000000000000000000000000000011000000000000000000000000000001000 <
1L"
0Z"
1J"
0W"
0T"
0Q"
1K"
0Y"
0V"
1I"
0S"
0P"
b101 H"
b110 F"
b111 G"
b101000000000000000000000000000001110000000000000000000000000000011000000000000000000000000000001000zzzzzzzzzzzzzzzzzzzzzzzzzzzzzzzzzzzzzzzzzzzzzzzzzzzzzzzzzzzzzzzzzzzzzzzzzzzzzzzzzzzzzzzzzzzzzzzzzzzzzzzzzzzzzzzzzzzzzz ;
b101000000000000000000000000000001110000000000000000000000000000011000000000000000000000000000001000zzzzzzzzzzzzzzzzzzzzzzzzzzzzzzzzzzzzzzzzzzzzzzzzzzzzzzzzzzzzzzzzzzzzzzzzzzzzzzzzzzzzzzzzzzzzzzzzzzzzzzzzzzzzzzzzzzzzzz -"
b101000000000000000000000000000001110000000000000000000000000000011000000000000000000000000000001000zzzzzzzzzzzzzzzzzzzzzzzzzzzzzzzzzzzzzzzzzzzzzzzzzzzzzzzzzzzzzzzzzzzzzzzzzzzzzzzzzzzzzzzzzzzzzzzzzzzzzzzzzzzzzzzzzzzzzz N"
b101000000000000000000000000000001110000000000000000000000000000011000000000000000000000000000001000 M"
b1000 E"
0\"
b0 ]"
0["
b101000000000000000000000000000001100000000000000000000000000000011100000000000000000000000000001000 $#
b0 %#
b1000 )#
b111 (#
b110 '#
b101000000000000000000000000000001100000000000000000000000000000011100000000000000000000000000001000 X"
b111000000000000000000000000000010000000000000000000000000000000010100000000000000000000000000000110 U"
b110000000000000000000000000000001010000000000000000000000000000100000000000000000000000000000000111 R"
b1000000000000000000000000000000001110000000000000000000000000000011000000000000000000000000000000101 O"
b101 &#
1K
1A"
13
1'
#12
b10000 Y
b10000 [
b1 V
b1 s
b1 x
b11 a
b1 w
b10 v
b10 b
b10 u
b10000 X
b10000 Z
b1 U
b1 y
b1 ~
b110 -
b1001 N
b1001 6
b1001 H
b1001 *
b1001 0
b1000000010000000100000001000000100000000000000000000000000001001 W
1M
15
1)
b11 `
b1 }
b10 |
b10 O
b10 {
b10 7
b10 I
b10 +
b10 1
0K
0A"
03
0'
#13
1o"
b1000 D"
1."
1##
1|"
1x"
1t"
b1001 C"
b10001000000000000000000000000000000001001 q"
b10001000000000000000000000000000000001001 p"
b10000 n"
b1000000000000000000000000000000001001 m"
b1000000000000000000000000000000001001 l"
b10000 j"
b1000000000000000000000000000000001001 i"
b1000000000000000000000000000000001001 h"
b10000 f"
b1000000000000000000000000000000001001 e"
b1000000000000000000000000000000001001 d"
b10000 b"
bx 6"
b10000 a"
bx 7"
b10000 `"
bx 8"
b10000 _"
bx 9"
b10000 ^"
b1000000010000000100000001000000100000000000000000000000000001001 @"
b1000000010000000100000001000000100000000000000000000000000001001 9
b1000000010000000100000001000000100000000000000000000000000001001 >"
b10 n
1i
b1001 j
b1 l
b1 k
b10000 c
b10000 d
b10000 e
b10000 f
b1000000010000000100000001000000100000000000000000000000000001001zzzzzzzzzzzzzzzzzzzzzzzzzzzzzzzzzzzzzzzzzzzzzzzzzzzzzzzzzzzzzzzzzzzzzzzzzzzzzzzzzzzzzzzzzzzzzzzzzzzzzzzzzzzzzzzzzzzzzz =
b1000000010000000100000001000000100000000000000000000000000001001zzzzzzzzzzzzzzzzzzzzzzzzzzzzzzzzzzzzzzzzzzzzzzzzzzzzzzzzzzzzzzzzzzzzzzzzzzzzzzzzzzzzzzzzzzzzzzzzzzzzzzzzzzzzzzzzzzzzzz >
b1000000010000000100000001000000100000000000000000000000000001001zzzzzzzzzzzzzzzzzzzzzzzzzzzzzzzzzzzzzzzzzzzzzzzzzzzzzzzzzzzzzzzzzzzzzzzzzzzzzzzzzzzzzzzzzzzzzzzzzzzzzzzzzzzzzzzzzzzzzz \
b1000000010000000100000001000000100000000000000000000000000001001 h
1K
1A"
13
1'
#14
b10001 Z
b10001 [
b1 S
b1 !"
b1 &"
b1 %"
1Q
b1 B
b10 ^
b10 $"
b10 _
b10 #"
b111 -
b1000100010001000100000001000001100000000000000000000000000001010 W
b1010 N
b1010 6
b1010 H
b1010 *
b1010 0
b10 ]
b1 *"
b1 P
b1 )"
b1 8
b1 J
b1 ,
b1 2
0K
0A"
03
0'
#15
0o"
1g"
0."
b10 D"
12"
bx "
bx #
bx $
bx %
0/"
13"
bx .
bx <
0~"
1}"
0z"
1y"
1u"
1r"
b10001000000000000000000000000000000001010 i"
b10001000000000000000000000000000000001010 h"
b1000000000000000000000000000000001010 e"
b1000000000000000000000000000000001010 d"
b1010 C"
b1000100000000000000000000000000001010 q"
b1000100000000000000000000000000001010 p"
b10001 n"
b1000100000000000000000000000000001010 m"
b1000100000000000000000000000000001010 l"
b10001 j"
b10001 a"
b10001 `"
bx H"
bx F"
bx G"
bxzzzzzzzzzzzzzzzzzzzzzzzzzzzzzzzzzzzzzzzzzzzzzzzzzzzzzzzzzzzzzzzzzzzzzzzzzzzzzzzzzzzzzzzzzzzzzzzzzzzzzzzzzzzzzzzzzzzzzz ;
bxzzzzzzzzzzzzzzzzzzzzzzzzzzzzzzzzzzzzzzzzzzzzzzzzzzzzzzzzzzzzzzzzzzzzzzzzzzzzzzzzzzzzzzzzzzzzzzzzzzzzzzzzzzzzzzzzzzzzzz -"
bxzzzzzzzzzzzzzzzzzzzzzzzzzzzzzzzzzzzzzzzzzzzzzzzzzzzzzzzzzzzzzzzzzzzzzzzzzzzzzzzzzzzzzzzzzzzzzzzzzzzzzzzzzzzzzzzzzzzzzz N"
bx M"
bx E"
b1000100010001000100000001000001100000000000000000000000000001010 @"
b1000100010001000100000001000001100000000000000000000000000001010 9
b1000100010001000100000001000001100000000000000000000000000001010 >"
bx $#
b1000100010001000100000001000001100000000000000000000000000001010zzzzzzzzzzzzzzzzzzzzzzzzzzzzzzzzzzzzzzzzzzzzzzzzzzzzzzzzzzzzzzzzzzzzzzzzzzzzzzzzzzzzzzzzzzzzzzzzzzzzzzzzzzzzzzzzzzzzzz =
b1000100010001000100000001000001100000000000000000000000000001010zzzzzzzzzzzzzzzzzzzzzzzzzzzzzzzzzzzzzzzzzzzzzzzzzzzzzzzzzzzzzzzzzzzzzzzzzzzzzzzzzzzzzzzzzzzzzzzzzzzzzzzzzzzzzzzzzzzzzz >
b1000100010001000100000001000001100000000000000000000000000001010zzzzzzzzzzzzzzzzzzzzzzzzzzzzzzzzzzzzzzzzzzzzzzzzzzzzzzzzzzzzzzzzzzzzzzzzzzzzzzzzzzzzzzzzzzzzzzzzzzzzzzzzzzzzzzzzzzzzzz \
b1000100010001000100000001000001100000000000000000000000000001010 h
b10001 d
b10001 c
b1 o
1q
b1010 j
b1 r
b1000000010000000100000001000000100000000000000000000000000001001 %#
bx )#
bx (#
bx '#
bx X"
bx U"
bx R"
bx O"
bx &#
bx 6"
1K
1A"
13
1'
#16
0Q
b0 B
b11 ^
b10001 X
b10001 Y
b1 R
b1 '"
b1 ,"
b1000 -
b1000100010001000100010001000100100000000000000000000000000001101 W
b1101 N
b1101 6
b1101 H
b1101 *
b1101 0
b11 ]
b1 +"
b10 *"
b10 P
b10 )"
b10 8
b10 J
b10 ,
b10 2
0K
0A"
03
0'
